[
    {
        "_id": "b-100",
        "_parentId": "a-10",
        "_type": "block",
        "_classes": "",
        "body": "",
        "displayTitle": "",
        "title": "",
        "_trackingId": 1
    },
    {
        "_id": "b-199",
        "_parentId": "a-10",
        "_type": "block",
        "_classes": "",
        "body": "",
        "displayTitle": "",
        "title": "",
        "_trackingId": 2
    },
    {
        "_id": "b-201",
        "_parentId": "a-20",
        "_type": "block",
        "_classes": "",
        "body": "",
        "displayTitle": "",
        "title": "",
        "_trackingId": 3
    },
    {
        "_id": "b-202",
        "_parentId": "a-20",
        "_type": "block",
        "_classes": "",
        "body": "",
        "displayTitle": "",
        "title": "",
        "_trackingId": 4
    },
    {
        "_id": "b-203",
        "_parentId": "a-20",
        "_type": "block",
        "_classes": "",
        "body": "",
        "displayTitle": "",
        "title": "",
        "_trackingId": 5
    },
    {
        "_id": "b-205",
        "_parentId": "a-20",
        "_type": "block",
        "_classes": "",
        "body": "",
        "displayTitle": "",
        "title": "",
        "_trackingId": 6
    },
    {
        "_id": "b-250",
        "_parentId": "a-30",
        "_type": "block",
        "_classes": "",
        "body": "",
        "displayTitle": "",
        "title": "",
        "_trackingId": 7
    },
    {
        "_id": "b-251",
        "_parentId": "a-30",
        "_type": "block",
        "_classes": "",
        "body": "",
        "displayTitle": "",
        "title": "",
        "_trackingId": 8
    },
    {
        "_id": "b-252",
        "_parentId": "a-30",
        "_type": "block",
        "_classes": "",
        "body": "",
        "displayTitle": "",
        "title": "",
        "_trackingId": 9
    },
    {
        "_id": "b-254",
        "_parentId": "a-30",
        "_type": "block",
        "_classes": "",
        "body": "",
        "displayTitle": "",
        "title": "",
        "_trackingId": 10
    },
    {
        "_id": "b-256",
        "_parentId": "a-30",
        "_type": "block",
        "_classes": "",
        "body": "",
        "displayTitle": "",
        "title": "",
        "_trackingId": 11
    },
    {
        "_id": "b-257",
        "_parentId": "a-30",
        "_type": "block",
        "_classes": "",
        "body": "",
        "displayTitle": "",
        "title": "",
        "_trackingId": 12
    },
    {
        "_id": "b-258",
        "_parentId": "a-30",
        "_type": "block",
        "_classes": "",
        "body": "",
        "displayTitle": "",
        "title": "",
        "_trackingId": 13
    },
    {
        "_id": "b-262",
        "_parentId": "a-30",
        "_type": "block",
        "_classes": "",
        "body": "",
        "displayTitle": "",
        "title": "",
        "_trackingId": 14
    },
    {
        "_id": "b-300",
        "_parentId": "a-40",
        "_type": "block",
        "_classes": "",
        "body": "",
        "displayTitle": "",
        "title": "",
        "_trackingId": 15
    },
    {
        "_id": "b-302",
        "_parentId": "a-40",
        "_type": "block",
        "_classes": "",
        "body": "",
        "displayTitle": "",
        "title": "",
        "_trackingId": 16
    },
    {
        "_id": "b-304",
        "_parentId": "a-40",
        "_type": "block",
        "_classes": "",
        "body": "",
        "displayTitle": "",
        "title": "",
        "_trackingId": 17
    },
    {
        "_id": "b-310",
        "_parentId": "a-40",
        "_type": "block",
        "_classes": "",
        "body": "",
        "displayTitle": "",
        "title": "",
        "_trackingId": 18
    },
    {
        "_id": "b-311",
        "_parentId": "a-50",
        "_type": "block",
        "_classes": "",
        "body": "",
        "displayTitle": "",
        "title": "",
        "_trackingId": 19
    },
    {
        "_id": "b-312",
        "_parentId": "a-50",
        "_type": "block",
        "_classes": "",
        "body": "",
        "displayTitle": "",
        "title": "",
        "_trackingId": 20
    },
    {
        "_id": "b-315",
        "_parentId": "a-50",
        "_type": "block",
        "_classes": "",
        "body": "",
        "displayTitle": "",
        "title": "",
        "_trackingId": 21
    },
    {
        "_id": "b-500",
        "_parentId": "a-60",
        "_type": "block",
        "_classes": "",
        "body": "",
        "displayTitle": "",
        "title": "",
        "_trackingId": 22
    },
    {
        "_id": "b-505",
        "_parentId": "a-60",
        "_type": "block",
        "_classes": "",
        "body": "",
        "displayTitle": "",
        "title": "",
        "_trackingId": 23
    },
    {
        "_id": "b-510",
        "_parentId": "a-60",
        "_type": "block",
        "_classes": "",
        "body": "",
        "displayTitle": "",
        "title": "",
        "_trackingId": 24
    },
    {
        "_id": "b-570",
        "_parentId": "a-70",
        "_type": "block",
        "_classes": "",
        "body": "",
        "displayTitle": "",
        "title": "",
        "_trackingId": 25
    },
    {
        "_id": "b-571",
        "_parentId": "a-70",
        "_type": "block",
        "_classes": "",
        "body": "",
        "displayTitle": "",
        "title": "",
        "_trackingId": 26
    },
    {
        "_id": "b-572",
        "_parentId": "a-70",
        "_type": "block",
        "_classes": "",
        "body": "",
        "displayTitle": "",
        "title": "",
        "_trackingId": 27
    }
]