﻿[
  {
    "_id": "c-1000",
    "_parentId": "b-100",
    "_type": "component",
    "_component": "text",
    "_classes": "",
    "_layout": "full",
    "title": "Введение",
    "displayTitle": " ",
    "body": "Если вы хотите привлечь внимание аудитории к бренду, лучшая рекламная площадка для вас&#160;— это Лента новостей. Она особенно эффективна на мобильных устройствах, где реклама отображается вместе с публикациями друзей и родственников человека. Реклама в Ленте новостей на Facebook и в Instagram поможет вашему бренду охватить самую важную для него аудиторию.<br><br>Из этого курса вы узнаете, какие инструменты вы можете использовать для продвижения бренда на Facebook и в Instagram. Темы курса:<br><br><li>Почему Лента новостей Facebook является важным источником информации для пользователей ПК и мобильных устройств<br><li>Какие плейсменты и форматы рекламы на Facebook и в Instagram можно использовать для продвижения бренда<br><li>Как настроить таргетинг и управлять показом рекламы для увеличения узнаваемости бренда",
    "instruction": "",
    "_pageLevelProgress": {
      "_isEnabled": true
    }
  },
  {
        "_id":"c-1990",
        "_parentId":"b-199",
        "_type":"component",
        "_component":"co-jump",
        "_classes":"color-test",
        "_preLinkBody":"Далее мы поговорим о том, с чего начинается работа над кампанией по продвижению бренда: ",
        "_linkBody":"о статистике и таргетинге",
        "_postLinkBody":".",
        "_link":"#/id/co-02",
        "_graphic":"adapt/css/assets/icon_nextPage.png"
  },
  {
    "_id": "c-2010",
    "_parentId": "b-201",
    "_type": "component",
    "_component": "text",
    "_classes": "",
    "_layout": "full",
    "title": "Статистика и таргетинг",
    "displayTitle": " ",
    "body": "Определив цель кампании, вы должны провести анализ аудитории и выбрать настройки таргетинга.",
    "instruction": "",
    "_pageLevelProgress": {
      "_isEnabled": false
    }
  },
  {
    "_id": "c-2020",
    "_parentId": "b-202",
    "_type": "component",
    "_component": "text",
    "_classes": "",
    "_layout": "full",
    "title": "Статистика",
    "displayTitle": "Статистика",
    "body": "Мы предлагаем два инструмента для анализа аудитории: «Статистику аудитории» и Facebook IQ.<br><br><b>Статистика аудитории</b><br>«Статистика аудитории» помогает маркетологам узнать больше о целевой аудитории. Этот инструмент предлагает сводные географические и демографические данные, информацию о покупательском поведении и т.&#160;д. В нем можно выбрать три типа аудиторий:<p align='center'><img src='course/en/images/components/audience_insights.png'/></p><br><br><b>Аудитория Страницы:</b> люди, связанные с вашей Страницей (или мероприятием). Вы можете просмотреть их демографические данные, другие Страницы, которым они поставили отметку «Нравится», узнать, где они находятся и что они делают на Facebook.<br><br><b>Аудитория Facebook:</b> все пользователи Facebook. В этом разделе вы можете получить дополнительную информацию о конкретной аудитории (например, о женщинах в возрасте от 20 до 45 лет): их интересах, устройствах, с которых они заходят на Facebook, и т.&#160;д.<br><br><b>Индивидуально настроенная аудитория:</b> люди из аудитории, которую вы создали (например, клиенты, загруженные из вашей базы данных CRM).<br><br>Этот инструмент находится <a href='https://www.facebook.com/ads/audience_insights' target='new'>здесь</a>.<br><br><i>Чтобы узнать больше, рекомендуем пройти курс Blueprint <b>Статистика аудитории</b>.</i>",
    "instruction": "",
    "_pageLevelProgress": {
      "_isEnabled": true
    }
  },
  {
      "_id": "c-2025",
      "_parentId": "b-202",
      "_type": "component",
      "_component": "text",
      "_classes": "",
      "_layout": "full",
      "title": "",
      "displayTitle": "",
      "body": "<div class='fb-button-wrapper'><a href='https://www.facebook.com/ads/audience-insights/?ref=course_brand_best_practices_bp' target='_blank'><button class='bp-button'>Смотреть статистику аудитории</button></a></div><!-- fb-button-wrapper end -->",
      "instruction": "",
      "_pageLevelProgress": {
          "_isEnabled": false
      }
  },
  {
    "_id": "c-2030",
    "_parentId": "b-203",
    "_type": "component",
    "_component": "text",
    "_classes": "",
    "_layout": "full",
    "title": "Facebook IQ",
    "displayTitle": "Facebook IQ",
    "body": "<p align='center'><img src='course/en/images/components/FB_IQ.png'/></p><br>Facebook IQ&#160;— это портал, на котором мы публикуем результаты исследований, проведенных авторитетными специалистами: маркетологами, социологами и т.&#160;д. Здесь вы найдете огромное количество полезной информации, которую можно использовать для анализа аудитории и продвижения бренда. Например, вы можете узнать, как мобильные устройства изменили покупательское поведение людей в праздничные периоды или как найти новых клиентов среди людей, которые потеряли свои телефоны.<br><br>Все результаты исследований, представленные на портале Facebook IQ, доступны <a href='http://insights.fb.com/' target='new'>здесь</a>.",
    "instruction": "",
    "_pageLevelProgress": {
      "_isEnabled": true
    }
  },
  {
    "_id": "c-2050",
    "_parentId": "b-205",
    "_type": "component",
    "_component": "text",
    "_classes": "",
    "_layout": "full",
    "title": "Таргетинг",
    "displayTitle": "Таргетинг",
    "body": "Facebook и Instagram предлагают инструменты таргетинга на основе действий <i>реальных людей</i>.<br><br>Наши инструменты таргетинга:<br><br><p align='center'><img src='course/en/images/components/targeting_options.png'/></p><br><br><b>Основные аудитории</b>. С помощью наших инструментов таргетинга вы можете охватить любую аудиторию. Первый инструмент называется «Основные аудитории».<br><br>Сегменты таргетинга упорядочены в нем по типу таргетинга: демографические данные, местоположение, интересы и поведение.<br><br><li>Демографические данные: таргетинг по возрасту, полу, образованию и т.&#160;д.<br><br><li>Местоположение: таргетинг на людей в городах, странах и сообществах, представляющих интерес для вашей компании.<br><br><li>Интересы: охватите людей по интересам, хобби и Страницам Facebook, которым они поставили отметку «Нравится».<br><br><li>Поведение: таргетинг по покупательскому поведению, используемым устройствам и другим особенностям.<br><br><i>Чтобы узнать больше, пройдите курс Blueprint <b>Основные аудитории</b>.</i><hr><br><b>Индивидуально настроенные аудитории</b>. Этот инструмент позволяет использовать собранные данные для таргетинга на Facebook и в Instagram с соблюдением конфиденциальности. С его помощью вы можете охватить уже имеющихся клиентов, чтобы повторно привлечь их внимание.  Индивидуально настроенные аудитории позволяют использовать имеющиеся у вас данные, чтобы охватить людей в любых странах.<br><br><i>Чтобы узнать больше, пройдите курс Blueprint <b>Индивидуально настроенные аудитории</b>.</i><hr><br><b>Похожие аудитории</b>. Похожие аудитории на Facebook и в Instagram позволяют настроить таргетинг на людей, похожих на ваших лучших клиентов по демографическим данным и поведению. Этот инструмент можно использовать для расширения аудитории или поиска потенциальных клиентов.<br><br><i>Чтобы узнать больше, пройдите курс Blueprint <b>Похожие аудитории</b>.</i>",
    "instruction": "",
    "_pageLevelProgress": {
      "_isEnabled": true
    }
  },
  {
        "_id":"c-2051",
        "_parentId":"b-205",
        "_type":"component",
        "_component":"co-jump",
        "_classes":"color-test",
        "_preLinkBody":"Следующий этап&#160;— ",
        "_linkBody":"выбор оформления.",
        "_postLinkBody":" Узнайте, какие плейсменты и форматы рекламы (в том числе для мобильных устройств) поддерживают Facebook и Instagram.",
        "_link":"#/id/co-03",
        "_graphic":"adapt/css/assets/icon_nextPage.png"
  },
  {
    "_id": "c-3000",
    "_parentId": "b-250",
    "_type": "component",
    "_component": "text",
    "_classes": "",
    "_layout": "full",
    "title": "выбор оформления.",
    "displayTitle": "",
    "body": "Facebook и Instagram поддерживают множество форматов и плейсментов рекламы, позволяющих реализовать самые необычные и смелые идеи. Узнайте, какие плейсменты и форматы рекламы лучше всего подходят для выбранного вами оформления и вашей аудитории.",
    "instruction": "",
    "_pageLevelProgress": {
      "_isEnabled": false
    }
  },
  {
    "_id": "c-3001",
    "_parentId": "b-250",
    "_type": "component",
    "_component": "text",
    "_classes": "",
    "_layout": "full",
    "title": "Плейсменты рекламы",
    "displayTitle": "Плейсменты рекламы",
    "body": "Узнайте, какие плейсменты рекламы доступны на Facebook, в Instagram и Audience Network.<br><br>Facebook предлагает три плейсмента: Ленту новостей на ПК, Ленту новостей на мобильных устройствах и правый столбец на ПК.",
    "instruction": "",
    "_pageLevelProgress": {
      "_isEnabled": true
    }
  },
  {
    "_id":"c-3002",
    "_parentId":"b-250",
    "_type":"component",
    "_component":"graphic",
    "_classes":"",
    "_layout":"full",
    "title":"",
    "displayTitle":"",
    "body":"",
    "instruction":"",
    "_graphic": {
        "alt": "alt text",
        "large": "course/en/images/components/fb_placements.png",
        "small": "course/en/images/components/fb_placements.png",
        "attribution":""
    }
},
{
    "_id": "c-3003",
    "_parentId": "b-250",
    "_type": "component",
    "_component": "text",
    "_classes": "",
    "_layout": "full",
    "title": "",
    "displayTitle": "",
    "body": "<b>Лента новостей на ПК.</b> При выборе этого плейсмента ваша реклама будет показана в Ленте новостей на компьютере наряду с публикациями друзей и родственников владельца аккаунта. Выберите этот плейсмент, если хотите показывать рекламу пользователям ПК или ноутбуков.<br><br><b>Лента новостей на мобильных устройствах.</b> Если вы выберете этот плейсмент, вашу рекламу будут видеть пользователи приложения Facebook на мобильных устройствах. Она будет отображаться в их Ленте новостей наряду с публикациями друзей и родственников. Плейсмент «Лента новостей на мобильных устройствах» позволяет охватить людей, которые не сидят за компьютером.<br><br><b>Правый столбец на ПК.</b> Если вы выберете этот плейсмент, ваша реклама будет отображаться в правом столбце на Facebook. Помните, что правый столбец присутствует только на сайте Facebook для ПК. Поэтому рекламу в этом плейсменте увидят только люди, которые заходят на Facebook с ПК и ноутбуков.",
    "instruction": ""
  },
  {
    "_id": "c-3006",
    "_parentId": "b-251",
    "_type": "component",
    "_component": "text",
    "_classes": "",
    "_layout": "left",
    "title": "Instagram",
    "displayTitle": "",
    "body": "В приложении Instagram для мобильных устройств реклама в ленте отображается вместе с обычными публикациями.",
    "instruction": "",
    "_pageLevelProgress": {
      "_isEnabled": true
    }
  },
  {
    "_id":"c-3009",
    "_parentId":"b-251",
    "_type":"component",
    "_component":"graphic",
    "_classes":"",
    "_layout":"right",
    "title":"",
    "displayTitle":"",
    "body":"",
    "instruction":"",
    "_graphic": {
        "alt": "alt text",
        "large": "course/en/images/components/instagram_example.png",
        "small": "course/en/images/components/instagram_example.png",
        "attribution":""
    }
},
{
    "_id": "c-3010",
    "_parentId": "b-251",
    "_type": "component",
    "_component": "text",
    "_classes": "",
    "_layout": "full",
    "title": "",
    "displayTitle": "",
    "body": "<b>Instagram:</b> при выборе этого плейсмента вы сможете показать свою рекламу в ленте Instagram на мобильных устройствах пользователей. В Instagram люди ищут вдохновение в изображениях, поэтому данный плейсмент отлично подойдет для эмоционально заряженной рекламы с эффектным оформлением. Однако помните, что рекламу в Instagram видят только пользователи приложений Instagram для iOS и Android. Люди, просматривающие сайт Instagram на ПК, эту рекламу не увидят.",
    "instruction": ""
  },
  {
    "_id": "c-3011",
    "_parentId": "b-252",
    "_type": "component",
    "_component": "text",
    "_classes": "",
    "_layout": "full",
    "title": "Audience Network",
    "displayTitle": "",
    "body": "Audience Network позволяет показывать рекламу не только на Facebook, но и в других одобренных нами мобильных приложениях, а также на мобильных сайтах.<br><br><b>Audience Network:</b> плейсмент, который динамически преобразует рекламу в Ленте новостей на мобильных устройствах в нативную рекламу, баннеры или рекламные вставки, чтобы показывать ее на сайтах и в приложениях, одобренных Facebook. Это позволяет охватить больше людей в большем количестве мест. <p align='center'><img src='course/en/images/components/audience_network.png'/></p><br><br><i>Примечание.</i> Доступность всех перечисленных выше плейсментов зависит от цели рекламы. Подробнее см. <a href='https://www.facebook.com/business/help/274759766036201/' target='new'>здесь</a>.",
    "instruction": "",
    "_pageLevelProgress": {
      "_isEnabled": true
    }
  },
  {
    "_id": "c-3500",
    "_parentId": "b-254",
    "_type": "component",
    "_component": "text",
    "_classes": "",
    "_layout": "full",
    "title": "Форматы рекламы",
    "displayTitle": "Форматы рекламы",
    "body": "Далее вы узнаете, какие форматы рекламы можно использовать на Facebook и в Instagram.",
    "instruction": "",
    "_pageLevelProgress": {
      "_isEnabled": true
    }
  },
  {
    "_id": "c-3600",
    "_parentId": "b-254",
    "_type": "component",
    "_component": "text",
    "_classes": "",
    "_layout": "left",
    "title": "Фото",
    "displayTitle": "",
    "body": "<b>Фото:</b> неизменно популярный формат рекламы. Реклама с фото особенно успешна на платформе Instagram, созданной специально для публикации изображений. При создании такой рекламы вы можете загрузить несколько фото и посмотреть, какое из них обеспечит наилучшие результаты.",
    "instruction": "",
      "_pageLevelProgress": {
      "_isEnabled": true
    }
  },
  {
      "_id":"c-3601",
      "_parentId":"b-254",
      "_type":"component",
      "_component":"graphic",
      "_classes":"",
      "_layout":"right",
      "title":"",
      "displayTitle":"",
      "body":"",
      "instruction":"",
      "_graphic": {
          "alt": "alt text",
          "large": "course/en/images/components/image_ad.png",
          "small": "course/en/images/components/image_ad.png",
          "attribution":""
      }
  },
    {
    "_id": "c-3602",
    "_parentId": "b-256",
    "_type": "component",
    "_component": "text",
    "_classes": "",
    "_layout": "full",
    "title": "",
    "displayTitle": "",
    "body": "<hr>",
    "instruction": ""
  },
  {
    "_id": "c-3620",
    "_parentId": "b-256",
    "_type": "component",
    "_component": "text",
    "_classes": "",
    "_layout": "right",
    "title": "Видео",
    "displayTitle": "",
    "body": "<b>Видео:</b> функция автозапуска видеорекламы помогает привлечь внимание человека, когда он просматривает ленту. Видео запускается автоматически, как только человек увидит его на экране. В отличие от других рекламных платформ мы позволяем использовать короткие видео, которые человек с большей вероятностью просмотрит до конца.<br><br><cite>Источник: <a href='https://www.facebook.com/business/success/strongbow' target='new'>Strongbow Hard Apple Ciders&#160;— истории успеха на Facebook</a></cite>",
    "instruction": "",
      "_pageLevelProgress": {
      "_isEnabled": true
    }
  },
   {
      "_id":"c-3625",
      "_parentId":"b-256",
      "_type":"component",
      "_component":"framed-video",
      "_classes":"",
      "_layout":"right",
      "title":"",
      "displayTitle":"",
      "body":"",
      "_videoPosition":"top",
      "_componentHeight":"687px",
      "_videoPt":{"x":"51px","y":"260px"},
      "instruction":"",
      "_items": [
          {

              "frame":  "<img src='course/en/images/components/jaspers_phone.png'/>"
          },
          {
              "video":  "<video controls poster='course/en/video/strongbow_video.png' id='vid' max-width='244px' width='244px' controls='controls'><source src='course/en/video/strongbow_video.mp4' type='video/mp4'></video>"
          }
      ]
  },
  {
      "_id": "c-3639",
    "_parentId": "b-257",
    "_type": "component",
    "_component": "text",
    "_classes": "",
    "_layout": "full",
    "title": "",
    "displayTitle": "",
    "body": "<hr>",
    "instruction": ""
  },
  {
    "_id": "c-3640",
    "_parentId": "b-257",
    "_type": "component",
    "_component": "text",
    "_classes": "",
    "_layout": "left",
    "title": "Кольцевая галерея",
    "displayTitle": "",
    "body": "<b>Кольцевая галерея:</b> этот формат дает вам больше «пространства» для размещения рекламных материалов. В одно такое объявление можно добавить до 10 изображений или видео со ссылками. Видео автоматически воспроизводятся при горизонтальной прокрутке кольцевой галереи.",
    "instruction": "",
      "_pageLevelProgress": {
      "_isEnabled": true
    }
  },
  {
      "_id":"c-3641",
      "_parentId":"b-257",
      "_type":"component",
      "_component":"graphic",
      "_classes":"",
      "_layout":"right",
      "title":"",
      "displayTitle":"",
      "body":"",
      "instruction":"",
      "_graphic": {
          "alt": "alt text",
          "large": "course/en/images/components/carousel_ad.png",
          "small": "course/en/images/components/carousel_ad.png",
          "attribution":""
      }
  },
    {
    "_id": "c-3643",
    "_parentId": "b-258",
    "_type": "component",
    "_component": "text",
    "_classes": "",
    "_layout": "full",
    "title": "",
    "displayTitle": "",
    "body": "<hr>",
    "instruction": ""
  },
  {
    "_id": "c-3650",
    "_parentId": "b-258",
    "_type": "component",
    "_component": "text",
    "_classes": "",
    "_layout": "right",
    "title": "Холст",
    "displayTitle": "",
    "body": "<b>Холст:</b> быстро загружающийся полноэкранный элемент, на который можно добавлять фото, видео и кнопки призыва к действию. Люди могут просматривать кольцевую галерею, наклонять устройство для отображения изображений целиком, а также увеличивать изображения и видео. Холст позволяет рассказать о своем бренде так, как вам угодно. (В данный момент Холст доступен только на Facebook.)<br><br><cite>Источник: <a href='https://www.facebook.com/business/success/loccitane' target='_blank'>L'Occitane&#160;— истории успеха на Facebook</a></cite>",
    "instruction": "",
      "_pageLevelProgress": {
      "_isEnabled": true
    }
  },
  {
        "_id":"c-3700",
        "_parentId":"b-258",
        "_type":"component",
        "_component":"framed-video",
        "_classes":"",
        "_layout":"left",
        "title":"Реклама на Холсте: L'Occitane",
        "displayTitle":"",
        "body":"",
        "_componentHeight":"600px",
        "_componentWidth":"380px",
        "_videoPosition":"top",
        "_videoPt":{"x":"123px","y":"61px"},
        "instruction":"",
        "_items": [
            {

                "frame":  "<img width='550px' height='480px' src='course/en/images/components/iphone_white.png'/>"
            },
            {
                "video":  "<video controls poster='course/en/images/components/loccitane_poster.png' id='vid' width='200px' controls='controls'><source src='course/en/video/loccitane_35.mp4' type='video/mp4'></video>"
            }
        ]
    },
    {
    "_id": "c-3750",
    "_parentId": "b-262",
    "_type": "component",
    "_component": "text",
    "_classes": "",
    "_layout": "full",
    "title": "Призыв к действию",
    "displayTitle": "",
    "body": "<b>Призыв к действию:</b> чтобы побудить пользователя взаимодействовать с рекламой, добавьте в нее кнопку призыва к действию. Все перечисленные выше форматы рекламы на Facebook и Instagram поддерживают следующие кнопки призыва к действию:<br><br><li>Забронировать<br><li>Свяжитесь с нами<br><li>Скачать<br><li>Подробнее<br><li>В магазин<br><li>Регистрация<br><li>Еще<br><li>Подать заявку</li><br><br><i>Чтобы узнать больше о том, как оформлять рекламу, пройдите курс Blueprint <b>Рекомендации по оформлению рекламы</b>.</i>",
    "instruction": "",
        "_pageLevelProgress": {
      "_isEnabled": true
    }
  },
  {
        "_id":"c-3990",
        "_parentId":"b-262",
        "_type":"component",
        "_component":"co-jump",
        "_classes":"color-test",
        "_preLinkBody":"Итак, мы поговорили о доступных вам плейсментах и форматах рекламы. Перейдем к следующему разделу&#160;— ",
        "_linkBody":"«Планирование и реализация»",
        "_postLinkBody":" .",
        "_link":"#/id/co-04",
        "_graphic":"adapt/css/assets/icon_nextPage.png"
    },
  {
    "_id": "c-4000",
    "_parentId": "b-300",
    "_type": "component",
    "_component": "text",
    "_classes": "",
    "_layout": "full",
    "title": "Планирование и реализация",
    "displayTitle": "",
    "body": "Для кампании по продвижению бренда цель нужно выбрать <i>до</i> того, как вы выберете закупочный тип.",
    "instruction": "",
    "_pageLevelProgress": {
      "_isEnabled": false
    }
  },
  {
    "_id": "c-4010",
    "_parentId": "b-300",
    "_type": "component",
    "_component": "text",
    "_classes": "",
    "_layout": "full",
    "title": "Планирование",
    "displayTitle": "Планирование",
    "body": "При планировании кампании на Facebook и в Instagram задайте себе следующие вопросы:<br><br><li><b>Каких целей я хочу достичь? Как они связаны с основными целями моей компании?</b> Предположим, вы хотите повысить узнаваемость или изменить восприятие своего бренда. Подумайте о том, какую роль в вашей кампании будет играть реклама на Facebook и в Instagram.<br><br><li><b>Каких результатов я хочу достичь? Как их измерить?</b> Вам и вашим партнерам будет проще объединить усилия, если вы определите интересующие вас метрики до того, как запустите кампанию.<br><br><li><b>Какую аудиторию я хочу охватить?</b> Ответ на этот вопрос поможет вам правильно выбрать оформление рекламы.",
    "instruction": "",
    "_pageLevelProgress": {
      "_isEnabled": true
    }
  },
  {
    "_id": "c-4020",
    "_parentId": "b-302",
    "_type": "component",
    "_component": "graphic",
    "_classes": "",
    "_layout": "full",
    "title": "Реализация",
    "displayTitle": "Реализация",
    "body": "Выбор закупочного типа зависит от цели вашей кампании:",
    "instruction": "",
    "_graphic": {
      "alt": "",
      "title": "",
      "large": "course/en/images/components/bidding_tree.png",
      "medium": "course/en/images/components/bidding_tree.png",
      "small": "course/en/images/components/bidding_tree.png"
    },
    "_pageLevelProgress": {
      "_isEnabled": true
    }
  },
    {
    "_id": "c-4022",
    "_parentId": "b-302",
    "_type": "component",
    "_component": "text",
    "_classes": "",
    "_layout": "full",
    "title": "",
    "displayTitle": "",
    "body": "Далее мы подробно рассмотрим все закупочные типы, начиная с типа «Охват и частота».",
    "instruction": "",
    "_pageLevelProgress": {
      "_isEnabled": false
    }
  },
  {
    "_id": "c-4021",
    "_parentId": "b-302",
    "_type": "component",
    "_component": "text",
    "_classes": "",
    "_layout": "full",
    "title": "Охват и частота",
    "displayTitle": "Охват и частота",
    "body": "Традиционные платформы рекламы помогают лишь охватывать как можно больше людей. Инструменты таргетинга на Facebook и в Instagram позволяют не просто увеличить охват, но охватить именно тех людей, которые вам нужны.<br><br>Закупочный тип «Охват и частота» позволяет:<br><br><li>Заранее планировать кампании.<br><li>Полностью контролировать свое информационное присутствие среди целевых аудиторий.<br><li>Прогнозировать охват и цены. Мы определяем охват и цены до того, как вы запустите кампанию. Вы платите только за результаты на Facebook и в Instagram (если не достигнуты цели кампании).<br><li>Охватить нужных людей на любых устройствах.<br><li>Без труда закупать рекламу в режиме самообслуживания с помощью Power Editor, Ads Manager или API.<br><br><p align='left'><img src='course/en/images/components/reach_frequency.png'/></p><br><br><i>Чтобы узнать больше, пройдите курс Blueprint <b>Закупочный тип «Охват и частота» на Facebook</b>.</i>",
    "instruction": "",
    "_pageLevelProgress": {
      "_isEnabled": true
    }
  },
  {
    "_id": "c-4023",
    "_parentId": "b-302",
    "_type": "component",
    "_component": "text",
    "_classes": "",
    "_layout": "full",
    "title": "Покупки TRP (Target Rating Points)",
    "displayTitle": "Покупки TRP (Target Rating Points)",
    "body": "Покупки TRP на Facebook позволяют покупать баллы TRP, подтвержденные Nielsen.<sup>*</sup> Этот инструмент помогает рекламодателям спланировать и купить видеорекламу на Facebook, а также получить гарантированное количество показов по демографическим аудиториям Nielsen.",
    "instruction": "",
    "_pageLevelProgress": {
      "_isEnabled": true
    }
  },
  {
    "_id": "c-4024",
    "_parentId": "b-302",
    "_type": "component",
    "_component":"canvas-animation",
    "_classes":"",
    "_layout":"full",
    "title":"",
    "displayTitle":"",
    "animationName":"TestAnimation",
    "animation":"course/en/animations/test/testAnimation.js",
    "body":"<div id='TestAnimation'></div><br><cite><sup>*</sup>Доступно для рекламы с таргетингом на рынки Nielsen в США, Великобритании, Германии, Франции, Италии, Бразилии, Австралии и Канаде.</cite><br><br><i>Чтобы узнать больше о покупках TRP, пройдите курс Blueprint <b>Реклама на Facebook и по ТВ</b>.</i>",
    "_resources": {
        "leftImage":"course/en/images/components/tv_campaign.png",
        "centerImage":"course/en/images/components/extend_reach.png",
        "rightImage":"course/en/images/components/nielsen.png",
        "leftText":"Ваша телевизионная кампания",
        "centerText":"Увеличьте охват благодаря видеорекламе на Facebook и в Instagram",
        "rightText":"TRP, подтвержденный\nNielsen*"
    },
    "instruction":"",
    "_pageLevelProgress": {
    "_isEnabled": false
    }
},
{
    "_id": "c-4025",
    "_parentId": "b-304",
    "_type": "component",
    "_component": "text",
    "_classes": "",
    "_layout": "full",
    "title": "Оптимизация для охвата",
    "displayTitle": "Оптимизация для охвата",
    "body": "Оптимизация для охвата позволяет увеличить охват среди уникальных пользователей в выбранный период времени. Например, если выбрана неделя, мы будем оптимизировать охват среди уникальных пользователей в эту неделю, а затем обнулим счетчик частоты показов. ",
    "instruction": "",
    "_pageLevelProgress": {
      "_isEnabled": true
    }
  },
  {
    "_id": "c-4026",
    "_parentId": "b-304",
    "_type": "component",
    "_component": "text",
    "_classes": "",
    "_layout": "full",
    "title": "Оптимизация для просмотров видео",
    "displayTitle": "Оптимизация для просмотров видео",
    "body": "Этот тип оптимизации позволяет оптимизировать ставку, чтобы показывать рекламу людям, которые с высокой вероятностью посмотрят ваше видео. Просмотр видео регистрируется каждый раз, когда человек смотрит его в течение минимум трех секунд. Используйте этот тип оптимизации, если хотите показать свою рекламу только людям, которые с наибольшей вероятностью посмотрят ваше видео.",
    "instruction": "",
    "_pageLevelProgress": {
      "_isEnabled": true
    }
  },
  {
    "_id": "c-4027",
    "_parentId": "b-304",
    "_type": "component",
    "_component": "text",
    "_classes": "",
    "_layout": "full",
    "title": "Оптимизация для повышения узнаваемости бренда",
    "displayTitle": "Оптимизация для повышения узнаваемости бренда",
    "body": "Выбрав цель «Узнаваемость бренда» в Ads Manager или Power Editor, вы сможете оптимизировать рекламу для увеличения охвата или привлечения внимания (узнаваемости бренда).<br><br><b>Оптимизация для повышения узнаваемости бренда</b> помогает повысить узнаваемость бренда за счет увеличения охвата и привлечения дополнительного внимания.<br><br>Мы проанализировали несколько сотен кампаний по продвижению бренда и обнаружили, что на узнаваемость бренда влияет не только охват, но и количество внимания, которое люди уделяют рекламе. Чем дольше люди смотрят рекламу, тем больше вероятность, что они запомнят ваш бренд.<br><br><b>Оптимизация для увеличения охвата</b> позволяет увеличить охват среди уникальных пользователей в указанный период времени.",
    "instruction": "",
    "_pageLevelProgress": {
      "_isEnabled": true
    }
  },
  {
    "_id": "c-4027a",
    "_parentId": "b-304",
    "_type": "component",
    "_component": "text",
    "_classes": "",
    "_layout": "full",
    "title": "",
    "displayTitle": "",
    "body": "<div class='fb-button-wrapper'><a href='https://www.facebook.com/ads/create/?ref=course_brand_best_practices_bp' target='_blank'><button class='bp-button'>Создать рекламу</button></a></div><!-- fb-button-wrapper end -->",
    "instruction": "",
    "_pageLevelProgress": {
        "_isEnabled": false
    }
},
  {
        "_id":"c-4028",
        "_parentId":"b-310",
        "_type":"component",
        "_component":"co-jump",
        "_classes":"color-test",
        "_preLinkBody":"Вы почти закончили этот курс! Перейдем к следующей теме&#160;— ",
        "_linkBody":"«Измерение»",
        "_postLinkBody":" .",
        "_link":"#/id/co-05",
        "_graphic":"adapt/css/assets/icon_nextPage.png"
  },

  {
    "_id": "c-4110",
    "_parentId": "b-311",
    "_type": "component",
    "_component":"animate-message",
    "_classes": {"border-radius":"0px"},
    "_layout":"left",
    "title":"",
    "displayTitle":"",
    "body":"<br>Мы определяем результаты рекламы по трем основным метрикам:",
    "instruction":"",
    "titleAnimation":"transition.slideRightIn",
    "bodyAnimation":"transition.slideRightIn",
    "backgroundColor":"#fbcc9f,#fbe5cf,#fbcc9f,#fbe5cf",
    "_cornerRadius":"0px",
    "_pageLevelProgress": {
        "_isEnabled": false
    },
    "_disableAnimation":true,
    "_items": [
    {
        "item_title": "",
        "body":"<div style='padding:20px;'><b>Результаты с точки зрения аудитории</b><ul><li>Сколько человек охватила ваша реклама? Как часто эти люди ее видели?</li><li>Удалось ли вам охватить нужных людей/аудиторию?</li><li>Удалось ли вам охватить людей на разных устройствах?</li><ul></div>"
    },
    {
        "item_title": "",
        "body":"<div style='padding:20px;'><b>Результаты с точки зрения бренда</b><ul><li>Удалось ли вам привлечь внимание аудитории? Запомнили ли люди вашу рекламу?</li><li>Повысила ли она узнаваемость бренда?</li><li>Изменила ли реклама восприятие бренда?</li></ul></div>"
    },
    {
        "item_title": "",
        "body":"<div style='padding:20px;'><b>Результаты с точки зрения продаж</b><ul><li>Принесла ли реклама желаемые результаты вашей компании? Окупились ли инвестиции в нее?</li><li>Удалось ли вам увеличить продажи, количество лидов или установок приложения с помощью рекламы?</li></ul></div>"
    }
    ]
    },
    {
    "_id": "c-4111",
    "_parentId": "b-311",
    "_type": "component",
    "_component":"graphic",
    "_classes":"",
    "_layout":"right",
    "title":"",
    "displayTitle":"",
    "body":"",
    "instruction":"",
    "_graphic": {
        "alt": "alt text",
        "src": "course/en/images/components/three_Rs_4.png",
        "attribution":""
    }
    },
    {
    "_id": "c-4113",
    "_parentId": "b-312",
    "_type": "component",
    "_component": "text",
    "_classes": "",
    "_layout": "full",
    "title": "Охват, резонанс, реакция",
    "displayTitle": "",
    "body": "(Важно правильно выбрать инструменты измерения для интересующих вас метрик. Рекомендуем пройти курс Blueprint <b>Решения для измерения узнаваемости бренда</b>, чтобы узнать больше о наших решениях для измерения результативности кампаний по продвижению бренда.)<br><br>Чтобы определить эффективность оформления рекламы, перед запуском кампании проверьте следующее.<br><br><ul><li><b>Тестирование в нужной среде:</b> убедитесь, что оформление оптимизировано для среды, где будет показана реклама. Например, если кампания предназначена для мобильных устройств, просмотрите рекламу на мобильном устройстве, а не на ПК.<br><br>Если вы используете видео, помните, что оно может воспроизводиться без звука. Спросите себя: будет ли в этом случае понятна основная идея рекламы?</li><br><li><b>Связь с брендом:</b> люди должны без труда определять рекламодателя. Четкий акцент на бренде улучшает запоминаемость рекламы и другие метрики. Если вы используете видео, позаботьтесь о том, чтобы бренд можно было определить в течение первых трех секунд, а также чтобы он появлялся на всем протяжении видео.</li><br><li><b>Заметность:</b> спросите себя: смогла бы эта реклама привлечь мое внимание в Ленте новостей?</li><br><li><b>Актуальность и уместность:</b> будет ли реклама интересна целевой аудитории? Вызовет ли она эмоциональный отклик? Если вы используете несколько вариантов оформления, они должны быть объединены единым сообщением.</li><br><li><b>Привлечение внимания к бренду:</b> ваша реклама не рассчитана на прямой отклик? Если вы используете цели для бренда, убедитесь, что ваша реклама не требует от пользователя моментальных действий.</li></ul>",
    "instruction": "",
    "_pageLevelProgress": {
      "_isEnabled": true
    }
  },
  {
        "_id":"c-4122",
        "_parentId":"b-315",
        "_type":"component",
        "_component":"co-jump",
        "_classes":"color-test",
        "_preLinkBody":"Далее вы узнаете, как другие компании продвигали свой бренд с помощью рекламы на Facebook и в Instagram. Наша следующая тема называется ",
        "_linkBody":"«Истории успеха»",
        "_postLinkBody":".",
        "_link":"#/id/co-06",
        "_graphic":"adapt/css/assets/icon_nextPage.png"
    },
  {
    "_id": "c-5000",
    "_parentId": "b-500",
    "_type": "component",
    "_component": "text",
    "_classes": "",
    "_layout": "full",
    "title": "Истории успеха",
    "displayTitle": "",
    "body": "Компании по всему миру продвигают свои бренды с помощью рекламы на Facebook и в Instagram. Узнайте, как этим компаниям удалось достичь успеха.",
    "instruction": "",
    "_pageLevelProgress": {
      "_isEnabled": false
    }
  },
  {
    "_id": "c-5002",
    "_parentId": "b-500",
    "_type": "component",
    "_component": "graphic",
    "_classes": "",
    "_layout": "full",
    "title": "Salesforce",
    "displayTitle": "Salesforce",
    "body": "",
    "instruction": "",
    "_graphic": {
      "alt": "",
      "title": "",
      "large": "course/en/images/components/salesforce.png",
      "medium": "course/en/images/components/salesforce.png",
      "small": "course/en/images/components/salesforce.png"
    },
      "_pageLevelProgress": {
      "_isEnabled": true
    }
  },
  {
    "_id": "c-5003",
    "_parentId": "b-505",
    "_type": "component",
    "_component": "graphic",
    "_classes": "",
    "_layout": "full",
    "title": "",
    "displayTitle": "",
    "body": "Ведущий мировой поставщик CRM-систем Salesforce предлагает клиентам абсолютно новые способы взаимодействия с клиентами. Ежегодно компания проводит крупнейшую в мире конференцию разработчиков программного обеспечения&#160;— Dreamforce. Так, в 2015 году на конференции присутствовало 160&#160;000 человек из 78 стран.<br><br><b>Продвижение бесплатного пропуска на конференцию Expo+</b><br>Salesforce стремилась пробудить в потенциальных участниках интерес к конференции Dreamforce в Сан-Франциско и убедить их зарегистрироваться онлайн.<br><br><b>Выбор оформления</b><br>С помощью «Статистики аудитории» Salesforce определила, что большинство ее поклонников работает в сфере хай-тек, маркетинга и продаж, и запустила в Instagram подходящую для этой аудитории рекламу: в формате кольцевой галереи, с фото счастливых молодых специалистов, взлетающих в небо над Сан-Франциско.",
    "instruction": "",
    "_graphic": {
      "alt": "",
      "title": "",
      "large": "course/en/images/components/salesforce_example.png",
      "medium": "course/en/images/components/salesforce_example.png",
      "small": "course/en/images/components/salesforce_example.png"
    }
  },
  {
    "_id": "c-5004",
    "_parentId": "b-505",
    "_type": "component",
    "_component": "text",
    "_classes": "",
    "_layout": "full",
    "title": "",
    "displayTitle": "",
    "body": "<b>Заоблачные результаты</b><br>Результаты за период с июля по сентябрь 2015&#160;г.:<br><br><li>охвачено 5 миллионов уникальных пользователей Instagram;<br><li>цена за регистрацию на 17&#160;% ниже целевого показателя;<br><li>22,7 млн показов на Facebook.<hr><cite>Источник: <a href='https://www.facebook.com/business/success/salesforce-3' target='new'> Salesforce&#160;— истории успеха на Facebook</a>",
    "instruction": ""
  },
  {
    "_id": "c-5006",
    "_parentId": "b-505",
    "_type": "component",
    "_component": "graphic",
    "_classes": "",
    "_layout": "full",
    "title": "Direct Energy",
    "displayTitle": "Direct Energy",
    "body": "",
    "instruction": "",
    "_graphic": {
      "alt": "",
      "title": "",
      "large": "course/en/images/components/direct_energy.png",
      "medium": "course/en/images/components/direct_energy.png",
      "small": "course/en/images/components/direct_energy.png"
    },
    "_pageLevelProgress": {
      "_isEnabled": true
    }
  },
  {
    "_id": "c-5007",
    "_parentId": "b-505",
    "_type": "component",
    "_component": "graphic",
    "_classes": "",
    "_layout": "full",
    "title": "",
    "displayTitle": "",
    "body": "Direct Energy&#160;— один из крупнейших поставщиков электроэнергии, природного газа и коммунальных услуг в Северной Америке. Компания предлагает инструменты и сервисы, помогающие людям рационально и экономично потреблять электроэнергию.<br><br><b>В положительном свете</b><br>С помощью рекламы компания Direct Energy стремилась рассказать о своих преимуществах, чтобы повысить вовлеченность и количество кликов на сайт. Кроме того, ей нужно было охватить потенциальных клиентов&#160;— людей, желающих сменить поставщика электроэнергии,&#160;— на высококонкурентном рынке энергетических услуг в штате Техас и за его пределами.<br><br><b>Продуманный таргетинг</b><br>Direct Energy выбрала формат рекламы с кольцевой галереей и оформление, соответствующее образу жизни и приоритетам целевой аудитории. Например, в рекламе с таргетингом на экономных родителей компания использовала фото ребенка в плаще супергероя и слоган «Используйте силу экономии».<br><br>Она показывала эту рекламу в периоды, когда большинство потребителей подбирает новые тарифы и услуги, и использовала таргетинг по поведению, чтобы охватить людей, которые интересуются ремонтом, улучшением дома и экологией. Чтобы измерить вовлеченность для бренда, компания разместила на определенных страницах своего сайта пиксель Facebook.",
    "instruction": "",
    "_graphic": {
      "alt": "",
      "title": "",
      "large": "course/en/images/components/direct_energy_example.png",
      "medium": "course/en/images/components/direct_energy_example.png",
      "small": "course/en/images/components/direct_energy_example.png"
    }
  },
  {
    "_id": "c-5008",
    "_parentId": "b-505",
    "_type": "component",
    "_component": "text",
    "_classes": "",
    "_layout": "full",
    "title": "",
    "displayTitle": "",
    "body": "<b>Стабильный успех</b><br>Реклама с кольцевой галереей помогла Direct Energy обратиться к широкой, но грамотно выбранной аудитории по цене гораздо ниже, чем на других рекламных платформах.<br><br>Результаты кампании с кольцевой галереей в ноябре 2015 г. (по сравнению с кампанией с рекламой со ссылками в мае 2015&#160;г.):<br><br><li>на 56&#160;% ниже цена за клик;<br><li>в 2,5 раза выше вовлеченность;<br><li>в 2,4 раза больше кликов.</li><hr><cite>Источник: <a href='https://www.facebook.com/business/success/direct-energy' target='new'>Direct Energy&#160;— истории успеха на Facebook</a>",
    "instruction": "",
    "_pageLevelProgress": {
      "_isEnabled": false
    }
  },
  {
        "_id":"c-5009",
        "_parentId":"b-510",
        "_type":"component",
        "_component":"co-jump",
        "_classes":"color-test",
        "_preLinkBody":"Следующий раздел&#160;— ",
        "_linkBody":"Проверка знаний",
        "_postLinkBody":".",
        "_link":"#/id/co-07",
        "_graphic":"adapt/css/assets/icon_nextPage.png"
    },
  {
    "_id":"c-5010",
    "_parentId":"b-570",
    "_type":"component",
    "_component":"mcq",
    "_classes":"",
    "_layout":"full",
    "_attempts":1,
    "_questionWeight":1,
    "_isRandom":false,
    "_selectable":1,
    "title": "Вопрос 1 из 5",
    "displayTitle": "Вопрос 1 из 5",
    "body": "Что нужно сделать в первую очередь, чтобы спланировать успешную кампанию по продвижению бренда на Facebook и в Instagram?",
    "instruction": "",
    "_setCompletionOn": "inview",
    "_items": [
      {
        "text": "Выбрать закупочный тип",
        "_shouldBeSelected":false
      },
      {
        "text": "Определить цель кампании",
        "_shouldBeSelected":true
      },
      {
        "text": "Проанализировать аудиторию и выбрать настройки таргетинга",
        "_shouldBeSelected":false
      },
      {
        "text": "Подготовить материалы для оформления",
        "_shouldBeSelected":false
      }
    ],
    "_feedback":{
      "correct":"Верно! Чтобы успешно продвигать бренд на Facebook и в Instagram, сначала нужно определить цель кампании.",
      "_incorrect": {
        "notFinal": "",
        "final": "К сожалению, ответ неверный. Чтобы успешно продвигать бренд на Facebook и в Instagram, сначала нужно определить цель кампании."
      },
      "_partlyCorrect": {
        "notFinal": "",
        "final": "Если вы запускаете рекламу бренда, вы можете использовать закупочный тип «Охват и частота» или оптимизировать кампанию для просмотров видео."
      }
    },
 "_buttons": {
        "_submit": {
            "buttonText": "Отправить",
            "ariaLabel": "Нажмите здесь, чтобы отправить ответ."
        },
        "_reset": {
            "buttonText": "Сбросить",
            "ariaLabel": "Нажмите здесь, чтобы сбросить вопрос."
        },
        "_showCorrectAnswer": {
            "buttonText": "Правильный ответ",
            "ariaLabel": "Нажмите здесь, чтобы отобразить правильный ответ."
        },
        "_hideCorrectAnswer": {
            "buttonText": "Мой ответ",
            "ariaLabel": "Нажмите здесь, чтобы отобразить свой ответ."
        },
        "_showFeedback": {
            "buttonText": "Показать комментарий",
            "ariaLabel": "Нажмите здесь, чтобы еще раз отобразить комментарий к ответу."
        },
        "remainingAttemptsText": "осталось попыток",
        "remainingAttemptText": "последняя попытка",
        "disabledAriaLabel": "Кнопка недоступна."
    },
    "_pageLevelProgress": {
      "_isEnabled": true
    }
  },  {
    "_id":"c-5020",
    "_parentId":"b-571",
    "_type":"component",
    "_component":"mcq",
    "_classes":"",
    "_layout":"full",
    "_attempts":1,
    "_questionWeight":1,
    "_isRandom":false,
    "_selectable":3,
    "title": "Вопрос 2 из 5",
    "displayTitle": "Вопрос 2 из 5",
    "body": "Какие инструменты таргетинга на основе людей доступны на Facebook и в Instagram? (Выберите три варианта.)",
    "instruction": "",
    "_setCompletionOn": "inview",
    "_items": [
      {
        "text": "Основные аудитории",
        "_shouldBeSelected":true
      },
      {
        "text": "Динамические аудитории",
        "_shouldBeSelected":false
      },
      {
        "text": "Индивидуально настроенные аудитории",
        "_shouldBeSelected":true
      },
      {
        "text": "Похожие аудитории",
        "_shouldBeSelected":true
      },
      {
        "text": "Сегментированные аудитории",
        "_shouldBeSelected":false
      }
    ],
    "_feedback":{
      "correct":"Верно! На Facebook и в Instagram доступны три инструмента таргетинга: основные аудитории, индивидуально настроенные аудитории и похожие аудитории.",
      "_incorrect": {
        "notFinal": "",
        "final": "К сожалению, ответ неверный. На Facebook и в Instagram доступны три инструмента таргетинга: основные аудитории, индивидуально настроенные аудитории и похожие аудитории."
      },
      "_partlyCorrect": {
        "notFinal": "",
        "final": "К сожалению, как минимум один из ваших ответов неверен. На Facebook и в Instagram доступны три инструмента таргетинга: основные аудитории, индивидуально настроенные аудитории и похожие аудитории."
      }
    },
 "_buttons": {
        "_submit": {
            "buttonText": "Отправить",
            "ariaLabel": "Нажмите здесь, чтобы отправить ответ."
        },
        "_reset": {
            "buttonText": "Сбросить",
            "ariaLabel": "Нажмите здесь, чтобы сбросить вопрос."
        },
        "_showCorrectAnswer": {
            "buttonText": "Правильный ответ",
            "ariaLabel": "Нажмите здесь, чтобы отобразить правильный ответ."
        },
        "_hideCorrectAnswer": {
            "buttonText": "Мой ответ",
            "ariaLabel": "Нажмите здесь, чтобы отобразить свой ответ."
        },
        "_showFeedback": {
            "buttonText": "Показать комментарий",
            "ariaLabel": "Нажмите здесь, чтобы еще раз отобразить комментарий к ответу."
        },
        "remainingAttemptsText": "осталось попыток",
        "remainingAttemptText": "последняя попытка",
        "disabledAriaLabel": "Кнопка недоступна."
    },
    "_pageLevelProgress": {
      "_isEnabled": true
    }
  },
  {
    "_id":"c-5030",
    "_parentId":"b-572",
    "_type":"component",
    "_component":"mcq",
    "_classes":"",
    "_layout":"full",
    "_attempts":1,
    "_questionWeight":1,
    "_isRandom":false,
    "_selectable":1,
    "title": "Вопрос 3 из 5",
    "displayTitle": "Вопрос 3 из 5",
    "body": "Вы выбрали для рекламы формат кольцевой галереи. Сколько изображений или видео можно добавить в одно объявление?",
    "instruction": "",
    "_setCompletionOn": "inview",
    "_items": [
      {
        "text": "До трех изображений или видео со ссылками.",
        "_shouldBeSelected":false
      },
      {
        "text": "До 10 изображений со ссылками, видео или изображений и видео одновременно.",
        "_shouldBeSelected":true
      },
      {
        "text": "До двух видео и до трех изображений.",
        "_shouldBeSelected":false
        },
      {
        "text": "До пяти изображений. В рекламу с кольцевой галереей нельзя добавить видео.",
        "_shouldBeSelected":false
      }
    ],
    "_feedback":{
      "correct":"Верно! В рекламу с кольцевой галереей можно добавить до 10 изображений со ссылками ИЛИ видео.",
      "_incorrect": {
        "notFinal": "",
        "final": "К сожалению, ответ неверный. В рекламу с кольцевой галереей можно добавить до 10 изображений со ссылками или видео."
      },
      "_partlyCorrect": {
        "notFinal": "",
        "final": ""
      }
    },
 "_buttons": {
        "_submit": {
            "buttonText": "Отправить",
            "ariaLabel": "Нажмите здесь, чтобы отправить ответ."
        },
        "_reset": {
            "buttonText": "Сбросить",
            "ariaLabel": "Нажмите здесь, чтобы сбросить вопрос."
        },
        "_showCorrectAnswer": {
            "buttonText": "Правильный ответ",
            "ariaLabel": "Нажмите здесь, чтобы отобразить правильный ответ."
        },
        "_hideCorrectAnswer": {
            "buttonText": "Мой ответ",
            "ariaLabel": "Нажмите здесь, чтобы отобразить свой ответ."
        },
        "_showFeedback": {
            "buttonText": "Показать комментарий",
            "ariaLabel": "Нажмите здесь, чтобы еще раз отобразить комментарий к ответу."
        },
        "remainingAttemptsText": "осталось попыток",
        "remainingAttemptText": "последняя попытка",
        "disabledAriaLabel": "Кнопка недоступна."
    },
    "_pageLevelProgress": {
      "_isEnabled": true
    }
  },
  {
    "_id":"c-5031",
    "_parentId":"b-572",
    "_type":"component",
    "_component":"mcq",
    "_classes":"",
    "_layout":"full",
    "_attempts":1,
    "_questionWeight":1,
    "_isRandom":false,
    "_selectable":1,
    "title": "Вопрос 4 из 5",
    "displayTitle": "Вопрос 4 из 5",
    "body": "Какой закупочный тип мы рекомендуем использовать, если вы в первую очередь хотите повысить запоминаемость рекламы, а охват или количество показов кампании менее важны?",
    "instruction": "",
    "_setCompletionOn": "inview",
    "_items": [
      {
        "text": "Охват и частота",
        "_shouldBeSelected":false
      },
      {
        "text": "Покупки TRP",
        "_shouldBeSelected":false
      },
      {
        "text": "Оптимизация для увеличения охвата",
        "_shouldBeSelected":false
        },
      {
        "text": "Оптимизация для увеличения количества просмотров видео",
        "_shouldBeSelected":false
      },
      {
        "text": "Оптимизация для повышения узнаваемости бренда",
        "_shouldBeSelected":true
      }
    ],
    "_feedback":{
      "correct":"Верно! Если ваша основная цель&#160;— увеличить запоминаемость рекламы, вы должны выбрать оптимизацию для повышения узнаваемости бренда.",
      "_incorrect": {
        "notFinal": "",
        "final": "К сожалению, ответ неверный. Если ваша основная цель&#160;— увеличить запоминаемость рекламы, вы должны выбрать оптимизацию для повышения узнаваемости бренда."
      },
      "_partlyCorrect": {
        "notFinal": "",
        "final": ""
      }
    },
 "_buttons": {
        "_submit": {
            "buttonText": "Отправить",
            "ariaLabel": "Нажмите здесь, чтобы отправить ответ."
        },
        "_reset": {
            "buttonText": "Сбросить",
            "ariaLabel": "Нажмите здесь, чтобы сбросить вопрос."
        },
        "_showCorrectAnswer": {
            "buttonText": "Правильный ответ",
            "ariaLabel": "Нажмите здесь, чтобы отобразить правильный ответ."
        },
        "_hideCorrectAnswer": {
            "buttonText": "Мой ответ",
            "ariaLabel": "Нажмите здесь, чтобы отобразить свой ответ."
        },
        "_showFeedback": {
            "buttonText": "Показать комментарий",
            "ariaLabel": "Нажмите здесь, чтобы еще раз отобразить комментарий к ответу."
        },
        "remainingAttemptsText": "осталось попыток",
        "remainingAttemptText": "последняя попытка",
        "disabledAriaLabel": "Кнопка недоступна."
    },
    "_pageLevelProgress": {
      "_isEnabled": true
    }
  },
  {
    "_id":"c-5032",
    "_parentId":"b-572",
    "_type":"component",
    "_component":"mcq",
    "_classes":"",
    "_layout":"full",
    "_attempts":1,
    "_questionWeight":1,
    "_isRandom":false,
    "_selectable":1,
    "title": "Вопрос 5 из 5",
    "displayTitle": "Вопрос 5 из 5",
    "body": "По каким метрикам мы определяем эффективность маркетинга на Facebook и в Instagram?",
    "instruction": "",
    "_setCompletionOn": "inview",
    "_items": [
      {
        "text": "Результаты с точки зрения аудитории, бренда и актуальности",
        "_shouldBeSelected":false
        },
      {
        "text": "Результаты с точки зрения аудитории, бренда и продаж",
        "_shouldBeSelected":true
      },
      {
        "text": "Результаты с точки зрения бренда, актуальности и продаж",
        "_shouldBeSelected":false
      },
      {
        "text": "Результаты с точки зрения бренда, эффективности и актуальности",
        "_shouldBeSelected":false
      }

    ],
    "_feedback":{
      "correct":"Верно! Мы измеряем эффективность маркетинга с точки зрения аудитории, бренда и продаж.",
      "_incorrect": {
        "notFinal": "",
        "final": "К сожалению, ответ неверный. Мы измеряем эффективность маркетинга с точки зрения аудитории, бренда и продаж."
      },
      "_partlyCorrect": {
        "notFinal": "",
        "final": ""
      }
    },
 "_buttons": {
        "_submit": {
            "buttonText": "Отправить",
            "ariaLabel": "Нажмите здесь, чтобы отправить ответ."
        },
        "_reset": {
            "buttonText": "Сбросить",
            "ariaLabel": "Нажмите здесь, чтобы сбросить вопрос."
        },
        "_showCorrectAnswer": {
            "buttonText": "Правильный ответ",
            "ariaLabel": "Нажмите здесь, чтобы отобразить правильный ответ."
        },
        "_hideCorrectAnswer": {
            "buttonText": "Мой ответ",
            "ariaLabel": "Нажмите здесь, чтобы отобразить свой ответ."
        },
        "_showFeedback": {
            "buttonText": "Показать комментарий",
            "ariaLabel": "Нажмите здесь, чтобы еще раз отобразить комментарий к ответу."
        },
        "remainingAttemptsText": "осталось попыток",
        "remainingAttemptText": "последняя попытка",
        "disabledAriaLabel": "Кнопка недоступна."
    },
    "_pageLevelProgress": {
      "_isEnabled": true
    }
  },
  {
      "_id":"c-7001",
      "_parentId":"b-572",
      "_type":"component",
      "_component":"co-jump",
      "_classes":"color-test",
      "_autoComplete":true,
      "_preLinkBody":"Чтобы завершить курс, нажмите кнопку ниже. Примечание: нажмите <a href='#'>здесь</a>, чтобы проверить, все ли модули вы прошли до конца.<br>",
      "_linkBody":"<div style = 'text-align:center;padding:8px;'><button class='buttons-action'><b>КУРС ПРОЙДЕН</b></button></div><br> ",
      "_postLinkBody":"",
      "_link":"",
      "_pageLevelProgress": {
          "_isEnabled": false
      }
    }

]
